{ "compressionlevel":-1,
 "height":20,
 "infinite":false,
 "layers":[
        {
         "data":[0, 0, 0, 0, 0, 0, 0, 0, 0, 0, 0, 0, 0, 0, 0, 0, 0, 0, 0, 0, 0, 0, 0, 0, 0, 0, 0, 0, 0, 0, 0, 0, 0, 0, 0, 0, 0, 0, 0, 0, 0, 0, 0, 0, 0, 0, 0, 0, 0, 0, 0, 0, 0, 0, 0, 0, 0, 0, 0, 0, 0, 0, 0, 0, 0, 0, 0, 0, 0, 0, 0, 0, 0, 0, 0, 0, 0, 0, 0, 0, 0, 0, 0, 0, 0, 0, 0, 0, 0, 0, 0, 0, 0, 0, 0, 0, 0, 0, 0, 0, 0, 0, 0, 0, 0, 0, 0, 0, 0, 0, 0, 0, 0, 0, 0, 0, 0, 0, 0, 0, 0, 0, 0, 0, 0, 0, 0, 0, 0, 0, 0, 0, 0, 0, 0, 0, 0, 0, 0, 0, 0, 0, 0, 0, 0, 0, 0, 0, 0, 0, 0, 0, 0, 0, 0, 0, 0, 0, 0, 0, 0, 0, 0, 0, 0, 0, 0, 0, 0, 0, 0, 0, 0, 0, 0, 0, 0, 0, 0, 0, 0, 0, 0, 0, 3406, 3406, 0, 0, 0, 0, 0, 0, 0, 0, 3406, 3406, 0, 0, 0, 0, 0, 0, 0, 0, 0, 0, 0, 0, 0, 0, 0, 0, 0, 0, 0, 0, 0, 0, 0, 0, 0, 0, 0, 0, 0, 0, 0, 0, 3406, 3406, 0, 0, 0, 0, 0, 0, 0, 0, 0, 0, 0, 0, 0, 0, 0, 0, 0, 0, 0, 0, 0, 0, 0, 0, 0, 0, 0, 0, 0, 0, 0, 0, 0, 0, 0, 0, 0, 0, 0, 0, 0, 0, 0, 0, 0, 0, 0, 0, 0, 0, 0, 0, 0, 0, 0, 0, 0, 0, 0, 0, 0, 0, 0, 0, 0, 0, 0, 0, 0, 0, 0, 0, 0, 0, 0, 0, 0, 0, 0, 0, 0, 0, 0, 0, 0, 0, 0, 0, 0, 0, 0, 0, 0, 0, 0, 0, 0, 0, 0, 0, 0, 0, 0, 0, 0, 0, 0, 0, 0, 0, 0, 0, 0, 0, 0, 0, 0, 0, 0, 0, 0, 0, 0, 0, 0, 0, 0, 0, 0, 0, 0, 0, 0, 0, 0, 0, 0, 0, 0, 0, 0, 0, 0, 0, 0, 0, 0, 0, 0, 0, 0, 0, 0, 0, 0, 0, 0, 0, 0, 0, 0, 0, 0, 0, 0, 0, 0, 0, 0, 0],
         "height":20,
         "id":13,
         "name":"collides",
         "opacity":1,
         "type":"tilelayer",
         "visible":true,
         "width":20,
         "x":0,
         "y":0
        }, 
        {
         "data":[0, 0, 0, 0, 0, 0, 0, 0, 0, 0, 0, 0, 0, 0, 0, 0, 0, 0, 0, 0, 0, 0, 0, 0, 0, 0, 0, 0, 0, 0, 0, 0, 0, 0, 0, 0, 0, 0, 0, 3404, 0, 0, 0, 0, 0, 0, 0, 0, 0, 0, 0, 0, 0, 0, 0, 0, 0, 0, 0, 0, 0, 0, 0, 0, 0, 0, 0, 0, 0, 0, 0, 0, 0, 0, 0, 0, 0, 0, 0, 0, 0, 0, 0, 0, 0, 0, 0, 0, 0, 0, 0, 0, 0, 0, 0, 0, 0, 0, 0, 0, 0, 0, 0, 0, 0, 0, 0, 0, 0, 0, 0, 0, 0, 0, 0, 0, 0, 0, 0, 0, 0, 0, 0, 0, 0, 0, 0, 0, 0, 0, 0, 0, 0, 0, 0, 0, 0, 0, 0, 0, 0, 0, 0, 0, 0, 0, 0, 0, 0, 0, 0, 0, 0, 0, 0, 0, 0, 0, 0, 0, 0, 0, 0, 0, 0, 0, 0, 0, 0, 0, 0, 0, 0, 0, 0, 0, 0, 0, 0, 0, 0, 0, 0, 0, 0, 0, 0, 0, 0, 0, 0, 0, 0, 0, 0, 0, 0, 0, 0, 0, 0, 0, 0, 0, 0, 0, 0, 0, 0, 0, 0, 0, 0, 0, 0, 0, 0, 0, 0, 0, 0, 0, 0, 0, 0, 0, 0, 0, 0, 0, 0, 0, 0, 0, 0, 0, 0, 0, 0, 0, 0, 0, 0, 0, 0, 0, 0, 0, 0, 0, 0, 0, 0, 0, 0, 0, 0, 0, 0, 0, 0, 0, 0, 0, 0, 0, 0, 0, 0, 0, 0, 0, 0, 0, 0, 0, 0, 0, 0, 0, 0, 0, 0, 0, 0, 0, 0, 0, 0, 0, 0, 0, 0, 0, 0, 0, 0, 0, 0, 0, 0, 0, 0, 0, 0, 0, 0, 0, 0, 0, 0, 0, 0, 0, 0, 0, 0, 0, 0, 0, 0, 0, 0, 0, 0, 0, 0, 0, 0, 0, 0, 0, 0, 0, 0, 0, 0, 0, 0, 0, 0, 0, 0, 0, 0, 0, 0, 0, 0, 0, 0, 0, 0, 0, 0, 0, 0, 0, 0, 0, 0, 0, 0, 0, 0, 0, 0, 0, 0, 0, 0, 0, 0, 0, 0, 0, 0, 0, 0, 0, 0, 0, 0, 0, 0, 0, 0, 0, 0, 0, 0, 0, 0, 0, 0, 0, 0, 0, 0, 0],
         "height":20,
         "id":8,
         "name":"start",
         "opacity":1,
         "properties":[
                {
                 "name":"startLayer",
                 "type":"bool",
                 "value":true
                }],
         "type":"tilelayer",
         "visible":true,
         "width":20,
         "x":0,
         "y":0
        }, 
        {
         "data":[0, 0, 0, 0, 0, 0, 0, 0, 0, 0, 0, 0, 0, 0, 0, 0, 0, 0, 0, 0, 3403, 0, 0, 0, 0, 0, 0, 0, 0, 0, 0, 0, 0, 0, 0, 0, 0, 0, 0, 0, 0, 0, 0, 0, 0, 0, 0, 0, 0, 0, 0, 0, 0, 0, 0, 0, 0, 0, 0, 0, 0, 0, 0, 0, 0, 0, 0, 0, 0, 0, 0, 0, 0, 0, 0, 0, 0, 0, 0, 0, 0, 0, 0, 0, 0, 0, 0, 0, 0, 0, 0, 0, 0, 0, 0, 0, 0, 0, 0, 0, 0, 0, 0, 0, 0, 0, 0, 0, 0, 0, 0, 0, 0, 0, 0, 0, 0, 0, 0, 0, 0, 0, 0, 0, 0, 0, 0, 0, 0, 0, 0, 0, 0, 0, 0, 0, 0, 0, 0, 0, 0, 0, 0, 0, 0, 0, 0, 0, 0, 0, 0, 0, 0, 0, 0, 0, 0, 0, 0, 0, 0, 0, 0, 0, 0, 0, 0, 0, 0, 0, 0, 0, 0, 0, 0, 0, 0, 0, 0, 0, 0, 0, 0, 0, 0, 0, 0, 0, 0, 0, 0, 0, 0, 0, 0, 0, 0, 0, 0, 0, 0, 0, 0, 0, 0, 0, 0, 0, 0, 0, 0, 0, 0, 0, 0, 0, 0, 0, 0, 0, 0, 0, 0, 0, 0, 0, 0, 0, 0, 0, 0, 0, 0, 0, 0, 0, 0, 0, 0, 0, 0, 0, 0, 0, 0, 0, 0, 0, 0, 0, 0, 0, 0, 0, 0, 0, 0, 0, 0, 0, 0, 0, 0, 0, 0, 0, 0, 0, 0, 0, 0, 0, 0, 0, 0, 0, 0, 0, 0, 0, 0, 0, 0, 0, 0, 0, 0, 0, 0, 0, 0, 0, 0, 0, 0, 0, 0, 0, 0, 0, 0, 0, 0, 0, 0, 0, 0, 0, 0, 0, 0, 0, 0, 0, 0, 0, 0, 0, 0, 0, 0, 0, 0, 0, 0, 0, 0, 0, 0, 0, 0, 0, 0, 0, 0, 0, 0, 0, 0, 0, 0, 0, 0, 0, 0, 0, 0, 0, 0, 0, 0, 0, 0, 0, 0, 0, 0, 0, 0, 0, 0, 0, 0, 0, 0, 0, 0, 0, 0, 0, 0, 0, 0, 0, 0, 0, 0, 0, 0, 0, 0, 0, 0, 0, 0, 0, 0, 0, 0, 0, 0, 0, 0, 0, 0, 0, 0, 0, 0, 0],
         "height":20,
         "id":17,
         "name":"exitUrl",
         "opacity":1,
         "properties":[
                {
                 "name":"exitUrl",
                 "type":"string",
                 "value":"small.json#start"
                }],
         "type":"tilelayer",
         "visible":true,
         "width":20,
         "x":0,
         "y":0
        }, 
        {
         "data":[3670, 3668, 3670, 3670, 3670, 3669, 3668, 3668, 3668, 3668, 3669, 3669, 3668, 3669, 3669, 3668, 3670, 3669, 3668, 3669, 3669, 3668, 3668, 3668, 3670, 3670, 3668, 3669, 3669, 3669, 3668, 3668, 3668, 3669, 3668, 3669, 3670, 3670, 3669, 3670, 3669, 3668, 3669, 3668, 3669, 3669, 3669, 3668, 3670, 3669, 3669, 3668, 3669, 3670, 3669, 3669, 3668, 3669, 3669, 3669, 3670, 3669, 3668, 3668, 3670, 3668, 3668, 3668, 3669, 3668, 3670, 3668, 3668, 3670, 3669, 3669, 3669, 3669, 3668, 3669, 3670, 3668, 3669, 3669, 3669, 3668, 3670, 3669, 3668, 3669, 3669, 3668, 3669, 3670, 3668, 3668, 3668, 3668, 3669, 3669, 3669, 3668, 3668, 3669, 3668, 3669, 3670, 3668, 3669, 3668, 3668, 3668, 3669, 3668, 3669, 3669, 3669, 3669, 3670, 3669, 3670, 3669, 3668, 3669, 3669, 3668, 3669, 3669, 3668, 3668, 3668, 3669, 3670, 3669, 3668, 3668, 3669, 3669, 3668, 3669, 3670, 3668, 3668, 3670, 3668, 3668, 3668, 3669, 3668, 3668, 3668, 3669, 3668, 3669, 3668, 3670, 3668, 3668, 3668, 3669, 3669, 3668, 3670, 3669, 3669, 3669, 3668, 3669, 3668, 3669, 3668, 3670, 3668, 3670, 3668, 3669, 3668, 3668, 3669, 3669, 3668, 3669, 3669, 3668, 3668, 3668, 3668, 3668, 3668, 3668, 3668, 3668, 3668, 3668, 3668, 3669, 3669, 3668, 3670, 3669, 3668, 3668, 3668, 3668, 3670, 3669, 3669, 3670, 3669, 3669, 3668, 3669, 3669, 3669, 3669, 3669, 3669, 3668, 3670, 3669, 3669, 3668, 3668, 3668, 3669, 3669, 3668, 3668, 3668, 3669, 3668, 3669, 3668, 3669, 3668, 3668, 3669, 3670, 3668, 3668, 3669, 3668, 3668, 3668, 3669, 3669, 3669, 3669, 3669, 3668, 3668, 3669, 3670, 3669, 3668, 3668, 3668, 3669, 3668, 3669, 3668, 3670, 3670, 3668, 3668, 3668, 3669, 3669, 3668, 3669, 3669, 3669, 3669, 3669, 3668, 3668, 3669, 3668, 3669, 3670, 3669, 3669, 3669, 3668, 3668, 3670, 3668, 3668, 3668, 3668, 3668, 3669, 3669, 3668, 3668, 3668, 3668, 3670, 3668, 3669, 3668, 3670, 3669, 3669, 3668, 3669, 3668, 3668, 3668, 3668, 3668, 3669, 3669, 3668, 3668, 3669, 3670, 3670, 3668, 3668, 3670, 3669, 3669, 3668, 3669, 3669, 3669, 3669, 3669, 3668, 3669, 3668, 3669, 3669, 3669, 3669, 3669, 3668, 3668, 3669, 3668, 3669, 3668, 3669, 3668, 3668, 3668, 3669, 3668, 3668, 3670, 3668, 3669, 3668, 3669, 3668, 3669, 3668, 3668, 3668, 3669, 3669, 3670, 3670, 3668, 3668, 3669, 3668, 3669, 3669, 3669, 3670, 3668, 3670, 3668, 3670, 3668, 3670, 3669, 3670, 3670, 3668, 3668, 3670, 3668, 3670, 3670, 3670, 3668, 3669, 3668, 3668, 3668, 3668, 3670, 3669, 3668, 3668, 3669, 3668],
         "height":20,
         "id":2,
         "name":"floorLayer",
         "opacity":1,
         "type":"tilelayer",
         "visible":true,
         "width":20,
         "x":0,
         "y":0
        }, 
        {
         "data":[0, 0, 0, 0, 0, 0, 0, 0, 0, 0, 0, 0, 0, 0, 0, 0, 0, 0, 0, 0, 0, 0, 0, 0, 0, 0, 0, 0, 0, 0, 0, 0, 0, 0, 0, 0, 0, 0, 0, 0, 0, 0, 0, 0, 0, 0, 0, 0, 0, 0, 0, 0, 0, 0, 0, 0, 0, 0, 0, 0, 0, 0, 0, 0, 0, 0, 0, 0, 0, 0, 0, 0, 0, 0, 0, 0, 0, 0, 0, 0, 0, 0, 0, 0, 0, 0, 0, 0, 0, 0, 0, 0, 0, 0, 0, 0, 0, 0, 0, 0, 0, 0, 0, 0, 0, 0, 0, 0, 0, 0, 0, 0, 0, 0, 0, 0, 0, 0, 0, 0, 0, 0, 0, 0, 0, 0, 0, 0, 0, 0, 0, 0, 0, 0, 0, 0, 0, 0, 0, 0, 0, 0, 0, 0, 0, 0, 0, 0, 0, 0, 0, 0, 0, 0, 0, 0, 0, 0, 0, 0, 0, 0, 0, 0, 0, 0, 0, 0, 0, 0, 0, 0, 0, 0, 0, 0, 0, 0, 0, 0, 0, 0, 0, 0, 3745, 3746, 0, 0, 0, 0, 0, 0, 0, 0, 3745, 3746, 0, 0, 0, 0, 0, 0, 0, 0, 0, 0, 0, 0, 0, 0, 0, 0, 0, 0, 0, 0, 0, 0, 0, 0, 0, 0, 0, 0, 0, 0, 0, 0, 3745, 3746, 0, 0, 0, 0, 0, 0, 0, 0, 0, 0, 0, 0, 0, 0, 0, 0, 0, 0, 0, 0, 0, 0, 0, 0, 0, 0, 0, 0, 0, 0, 0, 0, 0, 0, 0, 0, 0, 0, 0, 0, 0, 0, 0, 0, 0, 0, 0, 0, 0, 0, 0, 0, 0, 0, 0, 0, 0, 0, 0, 0, 0, 0, 0, 0, 0, 0, 0, 0, 0, 0, 0, 0, 0, 0, 0, 0, 0, 0, 0, 0, 0, 0, 0, 0, 0, 0, 0, 0, 0, 0, 0, 0, 0, 0, 0, 0, 0, 0, 0, 0, 0, 0, 0, 0, 0, 0, 0, 0, 0, 0, 0, 0, 0, 0, 0, 0, 0, 0, 0, 0, 0, 0, 0, 0, 0, 0, 0, 0, 0, 0, 0, 0, 0, 0, 0, 0, 0, 0, 0, 0, 0, 0, 0, 0, 0, 0, 0, 0, 0, 0, 0, 0, 0, 0, 0, 0, 0, 0, 0, 0, 0, 0, 0, 0, 0, 0, 0, 0, 0, 0],
         "height":20,
         "id":19,
         "name":"baumst\u00e4mme",
         "opacity":1,
         "type":"tilelayer",
         "visible":true,
         "width":20,
         "x":0,
         "y":0
        }, 
        {
         "draworder":"topdown",
         "id":7,
         "name":"floorLayer",
         "objects":[],
         "opacity":1,
         "type":"objectgroup",
         "visible":true,
         "x":0,
         "y":0
        }, 
        {
         "data":[0, 0, 0, 0, 0, 0, 0, 0, 0, 0, 0, 0, 0, 0, 0, 0, 0, 0, 0, 0, 0, 0, 0, 0, 0, 0, 0, 0, 0, 0, 0, 0, 0, 0, 0, 0, 0, 0, 0, 0, 0, 0, 0, 0, 0, 0, 0, 0, 0, 0, 0, 0, 0, 0, 0, 0, 0, 0, 0, 0, 0, 0, 0, 0, 0, 0, 0, 0, 0, 0, 0, 0, 0, 0, 0, 0, 0, 0, 0, 0, 0, 0, 0, 0, 0, 0, 0, 0, 0, 0, 0, 0, 0, 0, 0, 0, 0, 0, 0, 0, 0, 0, 0, 0, 0, 0, 0, 0, 0, 0, 0, 0, 0, 0, 0, 0, 0, 0, 0, 0, 0, 0, 0, 3708, 3709, 3710, 3711, 0, 0, 0, 0, 0, 0, 3708, 3709, 3710, 3711, 0, 0, 0, 0, 0, 0, 3720, 3721, 3722, 3723, 0, 0, 0, 0, 0, 0, 3720, 3721, 3722, 3723, 0, 0, 0, 0, 0, 0, 3732, 3733, 3734, 3735, 3708, 3709, 3710, 3711, 0, 0, 3732, 3733, 3734, 3735, 0, 0, 0, 0, 0, 0, 3744, 0, 0, 3747, 3720, 3721, 3722, 3723, 0, 0, 3744, 0, 0, 3747, 0, 0, 0, 0, 0, 0, 0, 0, 0, 0, 3732, 3733, 3734, 3735, 0, 0, 0, 0, 0, 0, 0, 0, 0, 0, 0, 0, 0, 0, 0, 0, 3744, 0, 0, 3747, 0, 0, 0, 0, 0, 0, 0, 0, 0, 0, 0, 0, 0, 0, 0, 0, 0, 0, 0, 0, 0, 0, 0, 0, 0, 0, 0, 0, 0, 0, 0, 0, 0, 0, 0, 0, 0, 0, 0, 0, 0, 0, 0, 0, 0, 0, 0, 0, 0, 0, 0, 0, 0, 0, 0, 0, 0, 0, 0, 0, 0, 0, 0, 0, 0, 0, 0, 0, 0, 0, 0, 0, 0, 0, 0, 0, 0, 0, 0, 0, 0, 0, 0, 0, 0, 0, 0, 0, 0, 0, 0, 0, 0, 0, 0, 0, 0, 0, 0, 0, 0, 0, 0, 0, 0, 0, 0, 0, 0, 0, 0, 0, 0, 0, 0, 0, 0, 0, 0, 0, 0, 0, 0, 0, 0, 0, 0, 0, 0, 0, 0, 0, 0, 0, 0, 0, 0, 0, 0, 0, 0, 0, 0, 0, 0, 0, 0, 0, 0, 0, 0, 0, 0, 0, 0, 0, 0, 0, 0, 0, 0, 0, 0, 0, 0, 0, 0, 0, 0],
         "height":20,
         "id":20,
         "name":"Baumkronen",
         "opacity":1,
         "type":"tilelayer",
         "visible":true,
         "width":20,
         "x":0,
         "y":0
        }],
 "nextlayerid":21,
 "nextobjectid":1,
 "orientation":"orthogonal",
 "renderorder":"right-down",
 "tiledversion":"1.7.2",
 "tileheight":32,
 "tilesets":[
        {
         "columns":16,
         "firstgid":1,
         "image":"tiles_png\/deco\/rc3-mullana-neon-signs.png",
         "imageheight":512,
         "imagewidth":512,
         "margin":0,
         "name":"rc3-mullana-neon-signs",
         "spacing":0,
         "tilecount":256,
         "tileheight":32,
         "tiles":[
                {
                 "animation":[
                        {
                         "duration":350,
                         "tileid":5
                        }, 
                        {
                         "duration":350,
                         "tileid":69
                        }],
                 "id":5
                }, 
                {
                 "animation":[
                        {
                         "duration":280,
                         "tileid":22
                        }, 
                        {
                         "duration":280,
                         "tileid":86
                        }],
                 "id":22
                }, 
                {
                 "animation":[
                        {
                         "duration":350,
                         "tileid":27
                        }, 
                        {
                         "duration":350,
                         "tileid":91
                        }],
                 "id":27
                }, 
                {
                 "animation":[
                        {
                         "duration":420,
                         "tileid":47
                        }, 
                        {
                         "duration":420,
                         "tileid":111
                        }],
                 "id":47
                }, 
                {
                 "animation":[
                        {
                         "duration":200,
                         "tileid":71
                        }, 
                        {
                         "duration":200,
                         "tileid":7
                        }, 
                        {
                         "duration":240,
                         "tileid":7
                        }],
                 "id":71
                }, 
                {
                 "animation":[
                        {
                         "duration":350,
                         "tileid":0
                        }, 
                        {
                         "duration":350,
                         "tileid":1
                        }, 
                        {
                         "duration":350,
                         "tileid":2
                        }, 
                        {
                         "duration":350,
                         "tileid":3
                        }, 
                        {
                         "duration":350,
                         "tileid":4
                        }, 
                        {
                         "duration":350,
                         "tileid":16
                        }, 
                        {
                         "duration":350,
                         "tileid":17
                        }, 
                        {
                         "duration":350,
                         "tileid":18
                        }, 
                        {
                         "duration":350,
                         "tileid":19
                        }, 
                        {
                         "duration":350,
                         "tileid":20
                        }],
                 "id":73
                }],
         "tilewidth":32
        }, 
        {
         "columns":16,
         "firstgid":257,
         "image":"tiles_png\/structures\/rc3-mullana-overlay.png",
         "imageheight":1024,
         "imagewidth":512,
         "margin":0,
         "name":"rc3-mullana-overlay",
         "spacing":0,
         "tilecount":512,
         "tileheight":32,
         "tilewidth":32
        }, 
        {
         "columns":16,
         "firstgid":769,
         "image":"tiles_png\/structures\/rc3-mullana-functionary.png",
         "imageheight":512,
         "imagewidth":512,
         "margin":0,
         "name":"rc3-mullana-functionary",
         "spacing":0,
         "tilecount":256,
         "tileheight":32,
         "tilewidth":32
        }, 
        {
         "columns":16,
         "firstgid":1025,
         "image":"tiles_png\/deco\/rc3-mullana-objects.png",
         "imageheight":256,
         "imagewidth":512,
         "margin":0,
         "name":"rc3-mullana-objects",
         "spacing":0,
         "tilecount":128,
         "tileheight":32,
         "tilewidth":32
        }, 
        {
         "columns":16,
         "firstgid":1153,
         "image":"tiles_png\/structures\/rc3-mullana-colors-128.png",
         "imageheight":256,
         "imagewidth":512,
         "margin":0,
         "name":"rc3-mullana-colors-128",
         "spacing":0,
         "tilecount":128,
         "tileheight":32,
         "tilewidth":32
        }, 
        {
         "columns":3,
         "firstgid":1281,
         "image":"tiles_png\/community\/cert\/imgs\/furniture\/23_tisch_weiss_1.png",
         "imageheight":64,
         "imagewidth":96,
         "margin":0,
         "name":"23_tisch_weiss_1",
         "spacing":0,
         "tilecount":6,
         "tileheight":32,
         "tilewidth":32
        }, 
        {
         "columns":4,
         "firstgid":1287,
         "image":"tiles_png\/community\/cert\/imgs\/misc\/57_zettelfoo.png",
         "imageheight":96,
         "imagewidth":128,
         "margin":0,
         "name":"57_zettelfoo",
         "spacing":0,
         "tilecount":12,
         "tileheight":32,
         "tilewidth":32
        }, 
        {
         "columns":1,
         "firstgid":1299,
         "image":"tiles_png\/community\/cert\/imgs\/misc\/65_tischdokumente_2.png",
         "imageheight":64,
         "imagewidth":32,
         "margin":0,
         "name":"65_tischdokumente_2",
         "spacing":0,
         "tilecount":2,
         "tileheight":32,
         "tilewidth":32
        }, 
        {
         "columns":16,
         "firstgid":1301,
         "image":"tiles_png\/community\/cert\/imgs\/tilesheets\/c3gelb.png",
         "imageheight":2048,
         "imagewidth":512,
         "margin":0,
         "name":"c3gelb",
         "spacing":0,
         "tilecount":1024,
         "tileheight":32,
         "tilewidth":32
        }, 
        {
         "columns":2,
         "firstgid":2325,
         "image":"tiles_png\/community\/cert\/imgs\/tilesheets\/misc_set.png",
         "imageheight":832,
         "imagewidth":64,
         "margin":0,
         "name":"misc_set",
         "spacing":0,
         "tilecount":52,
         "tileheight":32,
         "tilewidth":32
        }, 
        {
         "columns":16,
         "firstgid":2377,
         "image":"tiles_png\/community\/cert\/imgs\/tilesheets\/misc.png",
         "imageheight":2048,
         "imagewidth":512,
         "margin":0,
         "name":"misc",
         "spacing":0,
         "tilecount":1024,
         "tileheight":32,
         "tiles":[
                {
                 "animation":[
                        {
                         "duration":220,
                         "tileid":57
                        }, 
                        {
                         "duration":220,
                         "tileid":58
                        }, 
                        {
                         "duration":220,
                         "tileid":59
                        }],
                 "id":57
                }, 
                {
                 "animation":[
                        {
                         "duration":190,
                         "tileid":163
                        }, 
                        {
                         "duration":190,
                         "tileid":164
                        }],
                 "id":164
                }, 
                {
                 "animation":[
                        {
                         "duration":190,
                         "tileid":170
                        }, 
                        {
                         "duration":190,
                         "tileid":172
                        }, 
                        {
                         "duration":190,
                         "tileid":174
                        }],
                 "id":170
                }, 
                {
                 "animation":[
                        {
                         "duration":190,
                         "tileid":171
                        }, 
                        {
                         "duration":190,
                         "tileid":173
                        }, 
                        {
                         "duration":190,
                         "tileid":175
                        }],
                 "id":171
                }, 
                {
                 "animation":[
                        {
                         "duration":190,
                         "tileid":186
                        }, 
                        {
                         "duration":190,
                         "tileid":188
                        }, 
                        {
                         "duration":190,
                         "tileid":190
                        }],
                 "id":186
                }, 
                {
                 "animation":[
                        {
                         "duration":190,
                         "tileid":187
                        }, 
                        {
                         "duration":190,
                         "tileid":189
                        }, 
                        {
                         "duration":190,
                         "tileid":191
                        }],
                 "id":187
                }],
         "tilewidth":32
        }, 
        {
         "columns":1,
         "firstgid":3401,
         "image":"tiles_png\/community\/cert\/imgs\/food_and_drinks\/10_coffee.png",
         "imageheight":32,
         "imagewidth":32,
         "margin":0,
         "name":"10_coffee",
         "spacing":0,
         "tilecount":1,
         "tileheight":32,
         "tilewidth":32
        }, 
        {
         "columns":1,
         "firstgid":3402,
         "image":"tiles_png\/community\/cert\/imgs\/testing\/broken_glass_1.png",
         "imageheight":32,
         "imagewidth":32,
         "margin":0,
         "name":"broken_glass_1",
         "spacing":0,
         "tilecount":1,
         "tileheight":32,
         "tilewidth":32
        }, 
        {
         "columns":9,
         "firstgid":3403,
         "image":"tiles_png\/community\/cert\/imgs\/tilesheets\/mapUtilities.png",
         "imageheight":32,
         "imagewidth":288,
         "margin":0,
         "name":"mapUtilities",
         "spacing":0,
         "tilecount":9,
         "tileheight":32,
         "tiles":[
                {
                 "id":0,
                 "properties":[
                        {
                         "name":"exitUrl",
                         "type":"string",
                         "value":"foo.json#bar"
                        }],
                 "type":"EXIT"
                }, 
                {
                 "id":1,
                 "properties":[
                        {
                         "name":"startLayer",
                         "type":"bool",
                         "value":true
                        }],
                 "type":"START"
                }, 
                {
                 "id":2,
                 "type":"INVIS"
                }, 
                {
                 "id":3,
                 "properties":[
                        {
                         "name":"collides",
                         "type":"bool",
                         "value":true
                        }],
                 "type":"BLOCK"
                }, 
                {
                 "id":4,
                 "properties":[
                        {
                         "name":"silent",
                         "type":"bool",
                         "value":true
                        }],
                 "type":"SILENT"
                }, 
                {
                 "id":5,
                 "type":"AUDIO"
                }, 
                {
                 "id":6,
                 "type":"CHANGE"
                }, 
                {
                 "id":7,
                 "type":"MISC"
                }, 
                {
                 "id":8,
                 "properties":[
                        {
                         "name":"openWebsite",
                         "type":"string",
                         "value":"https:\/\/streaming.media.ccc.de\/"
                        }],
                 "type":"URL"
                }],
         "tilewidth":32
        }, 
        {
         "columns":16,
         "firstgid":3412,
         "image":"tiles_png\/structures\/rc3-mullana-floor-wall.png",
         "imageheight":512,
         "imagewidth":512,
         "margin":0,
         "name":"rc3-mullana-floor-wall",
         "spacing":0,
         "tilecount":256,
         "tileheight":32,
         "tilewidth":32
        }, 
        {
         "columns":12,
         "firstgid":3668,
         "image":"assets\/externalTileset\/pipoya\/Unorganized Parts\/Unorganized Parts\/addwork.png",
         "imageheight":2048,
         "imagewidth":384,
         "margin":0,
         "name":"addwork",
         "spacing":0,
         "tilecount":768,
         "tileheight":32,
         "tilewidth":32
        }],
 "tilewidth":32,
 "type":"map",
 "version":"1.6",
 "width":20
}